my_blog - Exercice3
…
Question 9 : Créez deux colonnes à partir de la colonne Games. La première colonne Year sera une colonne de type integer contenant l’année des jeux. La deuxième colonne isSummer sera une colonne booléenne qui indiquera si les jeux sont des jeux d’été ou d’hiver. Vous pourrez utiliser la fonction separate_wider_delim de tidyr notamment. Les questions suivantes nécessitent l’application de plusieurs instructions en séquence. Essayez tant que possible de chaîner les instructions avec des pipes (%>% ou |>).

tibble_olympics_athletes <- tibble_olympics_athletes |> 
  separate(Games, into = c("Year", "isSummer"), 
           sep = " ", convert = TRUE)

print(tibble_olympics_athletes)

# A tibble: 269,731 × 14
      ID Name   Sex     Age Height Weight Team  NOC    Year isSummer City  Sport
   <int> <chr>  <fct> <int>  <int>  <dbl> <chr> <chr> <int> <chr>    <chr> <chr>
 1     1 A Dij… M        24    180     80 China CHN    1992 Summer   Barc… Bask…
 2     2 A Lam… M        23    170     60 China CHN    2012 Summer   Lond… Judo 
 3     3 Gunna… M        24     NA     NA Denm… DEN    1920 Summer   Antw… Foot…
 4     4 Edgar… M        34     NA     NA Denm… DEN    1900 Summer   Paris Tug-…
 5     5 Chris… F        21    185     82 Neth… NED    1988 Winter   Calg… Spee…
 6     5 Chris… F        21    185     82 Neth… NED    1988 Winter   Calg… Spee…
 7     5 Chris… F        25    185     82 Neth… NED    1992 Winter   Albe… Spee…
 8     5 Chris… F        25    185     82 Neth… NED    1992 Winter   Albe… Spee…
 9     5 Chris… F        27    185     82 Neth… NED    1994 Winter   Lill… Spee…
10     5 Chris… F        27    185     82 Neth… NED    1994 Winter   Lill… Spee…
# ℹ 269,721 more rows
# ℹ 2 more variables: Event <chr>, Medal <chr>

Question 10 : Calculez la moyenne d’age des athletes pour chacune des éditions des JO d’été. Quelle édition a compté les athlètes les plus jeunes ? Les plus vieux ?

tibble_Ol_moyenne_age <- tibble_olympics_athletes |> 
  group_by(Year) |> 
  summarise(moyenne_age = mean(Age, na.rm = TRUE))

tibble_Ol_moyenne_age

# A tibble: 35 × 2
    Year moyenne_age
   <int>       <dbl>
 1  1896        23.6
 2  1900        28.9
 3  1904        26.7
 4  1906        27.1
 5  1908        27.0
 6  1912        27.5
 7  1920        29.3
 8  1924        28.0
 9  1928        27.9
10  1932        29.6
# ℹ 25 more rows
…
