my_blog - Exercice final
…
    local_mock, with_mock

L'objet suivant est masqué depuis 'package:devtools':

    test_file

Prévisions météo pour les coordonnées GPS 43.276703, 5.334791

get_forecast(c("43.276703, 5.334791"))

Passing 1 address to the ArcGIS single address geocoder

Query completed in: 0.5 seconds

# A tibble: 168 × 5
   `heure en fuseau horaire UTC` `données de température` données de températu…¹
   <dttm>                                           <dbl>                  <dbl>
 1 2024-03-05 23:00:00                               25.5                   26.9
 2 2024-03-05 23:00:00                               24.8                   26.7
 3 2024-03-05 23:00:00                               24.2                   25.8
 4 2024-03-05 23:00:00                               23.5                   24.9
 5 2024-03-05 23:00:00                               23.3                   24.8
 6 2024-03-05 23:00:00                               24.9                   25.8
 7 2024-03-05 23:00:00                               26.9                   27.7
 8 2024-03-05 23:00:00                               29.3                   31.1
 9 2024-03-05 23:00:00                               31.7                   34.4
10 2024-03-05 23:00:00                               33.8                   36.9
# ℹ 158 more rows
# ℹ abbreviated name: ¹​`données de température ressentie`
# ℹ 2 more variables: `probabilité de pluie` <int>, `précipitation en mm` <dbl>

Prévisions météo pour le Stade de France

get_forecast("stade de France")

Passing 1 address to the ArcGIS single address geocoder

Query completed in: 0.3 seconds

# A tibble: 168 × 5
   `heure en fuseau horaire UTC` `données de température` données de températu…¹
   <dttm>                                           <dbl>                  <dbl>
 1 2024-03-05 23:00:00                                5.7                    3.6
 2 2024-03-05 23:00:00                                5.8                    4.5
 3 2024-03-05 23:00:00                                5.7                    3.7
 4 2024-03-05 23:00:00                                5.7                    4  
 5 2024-03-05 23:00:00                                5.7                    3.6
 6 2024-03-05 23:00:00                                5.4                    3.1
 7 2024-03-05 23:00:00                                5.3                    3.2
 8 2024-03-05 23:00:00                                5                      2.8
 9 2024-03-05 23:00:00                                5                      2.7
10 2024-03-05 23:00:00                                6.2                    3.9
# ℹ 158 more rows
# ℹ abbreviated name: ¹​`données de température ressentie`
# ℹ 2 more variables: `probabilité de pluie` <int>, `précipitation en mm` <dbl>

Prévisions météo pour Tahiti

get_forecast("Tahiti")

Passing 1 address to the ArcGIS single address geocoder

Query completed in: 0.1 seconds

# A tibble: 168 × 5
   `heure en fuseau horaire UTC` `données de température` données de températu…¹
   <dttm>                                           <dbl>                  <dbl>
 1 2024-03-05 23:00:00                               24.1                   26.5
 2 2024-03-05 23:00:00                               24.3                   26.8
 3 2024-03-05 23:00:00                               24.8                   26.9
 4 2024-03-05 23:00:00                               24.3                   25.9
 5 2024-03-05 23:00:00                               24.8                   26.9
 6 2024-03-05 23:00:00                               23.8                   25.3
 7 2024-03-05 23:00:00                               23.9                   25.3
 8 2024-03-05 23:00:00                               23.6                   25.5
 9 2024-03-05 23:00:00                               24                     25  
10 2024-03-05 23:00:00                               23.9                   24.4
# ℹ 158 more rows
# ℹ abbreviated name: ¹​`données de température ressentie`
# ℹ 2 more variables: `probabilité de pluie` <int>, `précipitation en mm` <dbl>
